: G10
: record gal_10
:120
: roff
: G20
: record gal_20
:120
: roff
: G30
: record gal_30
:120
: roff
: G40
: record gal_40
:120
: roff
: G50
: record gal_50
:120
: roff
: G60
: record gal_60
:120
: roff
: G70
: record gal_70
:120
: roff
: G80
: record gal_80
:120
: roff
: G90
: record gal_90
:120
: roff
